id,name,icon,description,id_amenity_category,created_at,updated_at
5,Swimming Pool,storage/picture/1292482100.png,Swimming Pool,1,31/08/14 15:51,NULL
6,Equipped Kitchen,storage/picture/1286675900.png,Equipped Kitchen,2,31/08/14 15:52,NULL
8,AC,storage/picture/1260424600.png,AC,2,29/03/15 7:20,NULL
10,TV in Room,storage/picture/1263932600.png,TV in Room,2,12/04/15 21:51,NULL
13,Garden,storage/picture/1267458200.png,Garden,1,12/04/15 21:53,NULL
14,Common Kitchen,storage/picture/1252572200.png,Common Kitchen,1,12/04/15 21:53,NULL
15,Balcony,storage/picture/1266365300.png,Balcony,2,12/04/15 21:53,NULL
17,Locker,storage/picture/1278708700.png,Locker,1,12/04/15 21:54,NULL
18,Fridge,storage/picture/1222895400.png,Fridge,2,12/04/15 21:54,NULL
19,Laundry,storage/picture/1256529300.png,Laundry,1,12/04/15 21:55,NULL
20,Doctor on Call,storage/picture/1276385600.png,Doctor on Call,1,12/04/15 21:55,NULL
21,Library,storage/picture/1255641200.png,Library,1,12/04/15 21:55,NULL
22,Hot Water,storage/picture/1225082900.png,Hot Water,2,12/04/15 21:56,NULL
23,Taxi Service,storage/picture/1213044900.png,Taxi Service,1,12/04/15 21:56,NULL
24,Car Parking,storage/picture/1299239900.png,Car Parking,1,12/04/15 21:56,NULL
25,Internet Access,storage/picture/1215168900.png,Internet Access,1,12/04/15 21:57,NULL
26,Room Service,storage/picture/1254590100.png,Room Service,1,12/04/15 21:57,NULL
27,Food Service,storage/picture/1272967900.png,Food Service,1,12/04/15 21:58,NULL
28,Fridge,storage/picture/1201076200.png,Fridge,1,18/04/15 16:25,NULL
30,Lounge,storage/picture/1200561000.png,Lounge,1,22/04/15 22:25,NULL
32,Mini Bar,storage/picture/1283658700.png,Mini Bar,2,22/04/15 22:25,NULL
33,Pet Friendly,storage/picture/1221762300.png,Pet Friendly,1,22/04/15 22:26,NULL
35,Jacuzzi,storage/picture/1244360300.png,Jacuzzi,1,22/04/15 22:27,NULL
36,Room Heater,storage/picture/1298077300.png,Room Heater,2,26/04/15 20:36,NULL
39,Party Hall ,storage/picture/1273904000.png,Party Hall ,1,11/06/15 8:51,NULL
40,Lobby,storage/picture/1224732500.png,Lobby,1,09/07/15 12:34,NULL
42,Terrace,storage/picture/1228641100.png,Terrace,2,11/07/15 12:12,NULL
44,Cooler,storage/picture/1237920800.png,Cooler,2,28/07/15 15:44,NULL